server {
    listen 80;
    server_name file.telpon.me;
    access_log /nfs4/filetelponme/logs/access.log;
    error_log /nfs4/filetelponme/logs/error.log;
    root /nfs4/filetelponme/www;
        client_max_body_size    16M;

    charset utf-8;

    location ^~ /.well-known/acme-challenge/ {
        # the usual settings
        allow all;
    }

    location ~ /\. { deny all; }
    location = /favicon.ico { }
        
    error_page  404              /404.html;
    location = /404.html {
        root /nfs4/filetelponme/www;
    }


    error_page   500 502 503 504  /50x.html;
    location = /50x.html {
        root /nfs4/filetelponme/www;
    }

    location / {
        root /nfs4/filetelponme/www;
        index  index.html index.htm index.php;
    }

    location ~ \.php$ {
        root /nfs4/filetelponme/www;
        include /etc/nginx/fastcgi_params;
        fastcgi_pass  127.0.0.1:9000;
        fastcgi_index index.php;
        fastcgi_param  SCRIPT_FILENAME  /nfs4/filetelponme/www$fastcgi_script_name;
    }

    location ~ /\.ht {
        deny  all;
    }
}

server {
    listen 443;
    server_name file.telpon.me;

    ssl_certificate           /etc/letsencrypt/live/file.telpon.me/fullchain.pem;
    ssl_certificate_key       /etc/letsencrypt/live/file.telpon.me/privkey.pem;

    ssl_protocols TLSv1 TLSv1.1 TLSv1.2;
    ssl_prefer_server_ciphers on;
    ssl_ciphers 'ECDHE-RSA-AES128-GCM-SHA256:ECDHE-ECDSA-AES128-GCM-SHA256:ECDHE-RSA-AES256-GCM-SHA384:ECDHE-ECDSA-AES256-GCM-SHA384:DHE-RSA-AES128-GCM-SHA256:DHE-DSS-AES128-GCM-SHA256:kEDH+AESGCM:ECDHE-RSA-AES128-SHA256:ECDHE-ECDSA-AES128-SHA256:ECDHE-RSA-AES128-SHA:ECDHE-ECDSA-AES128-SHA:ECDHE-RSA-AES256-SHA384:ECDHE-ECDSA-AES256-SHA384:ECDHE-RSA-AES256-SHA:ECDHE-ECDSA-AES256-SHA:DHE-RSA-AES128-SHA256:DHE-RSA-AES128-SHA:DHE-DSS-AES128-SHA256:DHE-RSA-AES256-SHA256:DHE-DSS-AES256-SHA:DHE-RSA-AES256-SHA:AES128-GCM-SHA256:AES256-GCM-SHA384:AES128-SHA256:AES256-SHA256:AES128-SHA:AES256-SHA:AES:CAMELLIA:DES-CBC3-SHA:!aNULL:!eNULL:!EXPORT:!DES:!RC4:!MD5:!PSK:!aECDH:!EDH-DSS-DES-CBC3-SHA:!EDH-RSA-DES-CBC3-SHA:!KRB5-DES-CBC3-SHA';
    ssl_session_timeout 1d;
    ssl_session_cache shared:SSL:50m;
    ssl_stapling on;
    ssl_stapling_verify on;
    add_header Strict-Transport-Security max-age=15768000;

    root /nfs4/filetelponme/www;

    index index.php;

    access_log /nfs4/filetelponme/logs/access.log;
    error_log /nfs4/filetelponme/logs/error.log;

    charset utf-8;

    location ^~ /.well-known/acme-challenge/ {
        # the usual settings
        allow all;
    }

    location ~ /\. { deny all; }
    location = /favicon.ico { }
    location = /robots.txt { }
	
    error_page  404              /404.html;
    location = /404.html {
        root /nfs4/filetelponme/www;
    }


    error_page   500 502 503 504  /50x.html;
    location = /50x.html {
        root /nfs4/filetelponme/www;
    }

    location ~ \.php$ {
        include         /etc/nginx/fastcgi_params;
        fastcgi_pass    127.0.0.1:9000;
        fastcgi_index   index.php;
        fastcgi_param   SCRIPT_FILENAME $document_root$fastcgi_script_name;
        include         fastcgi_params;
    }

}
